digraph mygraph {

node [shape=point,label=""]
INITIAL;

node [shape=circle];

S0[label="S0"];
S1[label="S1"];
S2[label="S2"];

INITIAL->S0;
S0->S1  [label="hugo/on"];
S1->S2  [label="erna/off"];
S2->S1  [label="alfred/"];
S2->S0  [label="/blink"];
}